{
  "entrada": "00/12/2003",
  "saida": "28/12/2013",
  "veiculo": {
    "marca": "tutuzinho",
    "modelo": "Gol Prata",
    "cor": "Verde",
    "ano": "2002"
  },
  "mecanico":{
    "nome":"aaaa",
    "anos_experiencia":""
  }
},
{
  "entrada": "00/12/2003",
  "saida": "28/12/2013",
  "veiculo": {
    "marca": "melzinho",
    "modelo": "Gol Prata",
    "cor": "Verde",
    "ano": "2002"
  },
  "mecanico":{
    "nome":"aaaa",
    "anos_experiencia":""
  }
},
{
  "entrada": "00/12/2003",
  "saida": "28/12/2013",
  "veiculo": {
    "marca": "garrafinho",
    "modelo": "Gol Prata",
    "cor": "Verde",
    "ano": "2002"
  },
  "mecanico":{
    "nome":"aaaa",
    "anos_experiencia":""
  }
},
{
  "entrada": "00/12/2003",
  "saida": "28/12/2013",
  "veiculo": {
    "marca": "luluzinho",
    "modelo": "Gol Prata",
    "cor": "Verde",
    "ano": "2002"
  },
  "mecanico":{
    "nome":"aaaa",
    "anos_experiencia":""
  }
},
{
  "entrada": "00/12/2003",
  "saida": "28/12/2013",
  "veiculo": {
    "marca": "belemzinho",
    "modelo": "Gol Prata",
    "cor": "Verde",
    "ano": "2002"
  },
  "mecanico":{
    "nome":"aaaa",
    "anos_experiencia":""
  }
}

{
"content": [
    {
  "entrada": "00/12/2003",
  "saida": "28/12/2013",
  "veiculo": {
    "marca": "tutuzinho",
    "modelo": "Gol Prata",
    "cor": "Verde",
    "ano": "2002"
  },
  "mecanico":{
    "nome":"aaaa",
    "anos_experiencia":""
  }
},
{
  "entrada": "00/12/2003",
  "saida": "28/12/2013",
  "veiculo": {
    "marca": "melzinho",
    "modelo": "Gol Prata",
    "cor": "Verde",
    "ano": "2002"
  },
  "mecanico":{
    "nome":"aaaa",
    "anos_experiencia":""
  }
}
],
"pageable": {
"pageNumber":
0
,
"pageSize":
2
,
"sort": {
"empty": true
,
"sorted": false
,
"unsorted": true
},
"offset":
0
,
"paged": true
,
"unpaged": false
},
"totalPages":
2
,
"totalElements":
4
,
"last": false
,
"size":
2
,
"number":
0
,
"sort": {
"empty": true
,
"sorted": false
,
"unsorted": true
},
"numberOfElements":
2
,
"first": true
,
"empty": false
}
